Classwork 1 – My stats blog
…
    discard

The following object is masked from 'package:readr':

    col_factor

Loading required package: ggridges

New to ggformula?  Try the tutorials: 
    learnr::run_tutorial("introduction", package = "ggformula")
    learnr::run_tutorial("refining", package = "ggformula")

babynames

# A tibble: 1,924,665 × 5
    year sex   name          n   prop
   <dbl> <chr> <chr>     <int>  <dbl>
 1  1880 F     Mary       7065 0.0724
 2  1880 F     Anna       2604 0.0267
 3  1880 F     Emma       2003 0.0205
 4  1880 F     Elizabeth  1939 0.0199
 5  1880 F     Minnie     1746 0.0179
 6  1880 F     Margaret   1578 0.0162
 7  1880 F     Ida        1472 0.0151
 8  1880 F     Alice      1414 0.0145
 9  1880 F     Bertha     1320 0.0135
10  1880 F     Sarah      1288 0.0132
# ℹ 1,924,655 more rows

Filtering baby names

babynames %>% filter(name=="Diya")

# A tibble: 27 × 5
    year sex   name      n       prop
   <dbl> <chr> <chr> <int>      <dbl>
 1  1991 F     Diya      5 0.00000246
 2  1992 F     Diya      5 0.00000249
 3  1995 F     Diya      6 0.00000312
 4  1996 F     Diya      7 0.00000365
 5  1997 F     Diya     12 0.00000629
 6  1998 F     Diya     12 0.00000619
 7  1999 F     Diya     14 0.00000719
 8  2000 F     Diya     18 0.00000902
 9  2001 F     Diya     54 0.0000273 
10  2002 F     Diya     92 0.0000466 
# ℹ 17 more rows
…
